com\sda\przesdzing\servlet\Order\OrderBuyDataServlet.class
com\sda\przesdzing\servlet\DB\Connection.class
com\sda\przesdzing\servlet\Product\DeleteProductServlet.class
com\sda\przesdzing\servlet\Filter\AdminSecurityFilter.class
com\sda\przesdzing\servlet\Domain\User.class
com\sda\przesdzing\servlet\DAO\DAOImpl.class
com\sda\przesdzing\servlet\User\RegisterServlet.class
com\sda\przesdzing\servlet\DAO\DAOOrderDb.class
com\sda\przesdzing\servlet\Product\ProductViewServlet.class
com\sda\przesdzing\servlet\User\ViewUserServlet.class
com\sda\przesdzing\servlet\Domain\ProductV2.class
com\sda\przesdzing\servlet\User\WrongEmailServlet.class
com\sda\przesdzing\servlet\Cart\AddToCartServlet.class
com\sda\przesdzing\servlet\Product\Categories.class
com\sda\przesdzing\servlet\DAO\DAOProductDb.class
com\sda\przesdzing\servlet\Order\OrdersServlet.class
com\sda\przesdzing\servlet\User\Roles.class
com\sda\przesdzing\servlet\Product\AllProductsServlet.class
com\sda\przesdzing\servlet\User\LoginOrEmailExistServlet.class
com\sda\przesdzing\servlet\User\LoginServlet.class
com\sda\przesdzing\servlet\Domain\Product.class
com\sda\przesdzing\servlet\User\LogoutServlet.class
com\sda\przesdzing\servlet\Product\AddProductServlet.class
com\sda\przesdzing\servlet\DAO\DAO.class
com\sda\przesdzing\servlet\Product\DbProducts.class
com\sda\przesdzing\servlet\Order\Order.class
com\sda\przesdzing\servlet\Cart\Cart.class
com\sda\przesdzing\servlet\Product\HomeServlet.class
com\sda\przesdzing\servlet\DAO\DAOUserDb.class
